{
  "presets": [
    ["@babel/preset-env", { "shippedProposals": true, "targets": { "node": "current" } }],
    "@babel/preset-typescript",
    "@babel/preset-react"
  ],
  "plugins":["babel-plugin-styled-components"]
}
