// Jest Snapshot v1, https://goo.gl/fbAQLP

exports[`<HomePage /> should match snapshot 1`] = `
<Memo(HomePageComponent)>
  <div>
    <h1>
      Welcome to MovieFinder!
    </h1>
    <h2>
      Use search bar on top to find some movies to watch
    </h2>
  </div>
</Memo(HomePageComponent)>
`;
