// Jest Snapshot v1, https://goo.gl/fbAQLP

exports[`<Footer /> renders correctly 1`] = `
<footerstyle__StyledFooter>
  <span>
    movie
  </span>
  <span>
    finder
  </span>
  <span>
    © 2020
  </span>
</footerstyle__StyledFooter>
`;
